0.000000,0.222222
1.000000,0.222222
2.000000,0.083333
3.000000,0.083333
4.000000,0.083333
5.000000,0.083333
6.000000,0.083333
7.000000,0.083333
8.000000,0.083333
9.000000,0.083333
10.000000,0.083333
11.000000,0.083333
12.000000,0.083333
13.000000,0.083333
14.000000,0.083333
15.000000,0.083333
16.000000,0.083333
17.000000,0.083333
18.000000,0.083333
19.000000,0.083333
20.000000,0.083333
21.000000,0.083333
22.000000,0.083333
23.000000,0.083333
24.000000,0.083333
25.000000,0.083333
26.000000,0.083333
27.000000,0.083333
28.000000,0.083333
29.000000,0.083333
30.000000,0.083333
31.000000,0.083333
32.000000,0.083333
33.000000,0.083333
34.000000,0.083333
35.000000,0.083333
36.000000,0.083333
37.000000,0.083333
38.000000,0.083333
39.000000,0.083333
40.000000,0.083333
41.000000,0.083333
42.000000,0.083333
43.000000,0.083333
44.000000,0.083333
45.000000,0.083333
46.000000,0.083333
47.000000,0.083333
48.000000,0.083333
49.000000,0.083333
50.000000,0.083333
51.000000,0.083333
52.000000,0.083333
53.000000,0.083333
54.000000,0.083333
55.000000,0.083333
56.000000,0.083333
57.000000,0.083333
58.000000,0.083333
59.000000,0.083333
60.000000,0.083333
61.000000,0.083333
62.000000,0.083333
63.000000,0.083333
64.000000,0.083333
65.000000,0.083333
66.000000,0.083333
67.000000,0.083333
68.000000,0.083333
69.000000,0.083333
70.000000,0.083333
71.000000,0.083333
72.000000,0.083333
73.000000,0.083333
74.000000,0.083333
75.000000,0.083333
76.000000,0.083333
77.000000,0.083333
78.000000,0.083333
79.000000,0.083333
80.000000,0.083333
81.000000,0.083333
82.000000,0.083333
83.000000,0.083333
84.000000,0.083333
85.000000,0.083333
86.000000,0.083333
87.000000,0.083333
88.000000,0.083333
89.000000,0.083333
90.000000,0.083333
91.000000,0.083333
92.000000,0.083333
93.000000,0.083333
94.000000,0.083333
95.000000,0.083333
96.000000,0.083333
97.000000,0.083333
98.000000,0.083333
99.000000,0.083333
100.000000,0.083333
101.000000,0.083333
102.000000,0.083333
103.000000,0.083333
104.000000,0.083333
105.000000,0.083333
106.000000,0.083333
107.000000,0.083333
108.000000,0.083333
109.000000,0.083333
110.000000,0.083333
111.000000,0.083333
112.000000,0.083333
113.000000,0.083333
114.000000,0.083333
115.000000,0.083333
116.000000,0.083333
117.000000,0.083333
118.000000,0.083333
119.000000,0.083333
120.000000,0.083333
121.000000,0.083333
122.000000,0.083333
123.000000,0.083333
124.000000,0.083333
125.000000,0.083333
126.000000,0.083333
127.000000,0.083333
128.000000,0.083333
129.000000,0.083333
130.000000,0.083333
131.000000,0.083333
132.000000,0.083333
133.000000,0.083333
134.000000,0.083333
135.000000,0.083333
136.000000,0.000000
